…
```
## [1] 0.7628582
```


## Les statistiques en bref

```r
DF <- readxl::read_xlsx("reading_skills3.xlsx")
DF
```

```
## # A tibble: 44 x 5
##    sujet   age accuracy dyslexia     iq
##    <dbl> <dbl>    <dbl> <chr>     <dbl>
##  1     1    69    0.884 no        0.827
##  2     2    67    0.765 no        0.59 
##  3     3    43    0.915 no        0.471
##  4     4    18    0.984 no        1.14 
##  5     5    55    0.884 no       -0.676
##  6     6    57    0.709 no       -0.795
##  7     7    62    0.771 no       -0.281
##  8     8    50    0.99  no       -0.914
##  9     9    79    0.99  no       -0.043
## 10    10    69    0.99  no        0.907
## # ... with 34 more rows
```
…
